…
``` r
devtools::install_github("mbjoseph/mrmr")
```

Usage
-----

``` r
library(mrmr)
mr_data <- load_mr("tests/testthat/ex.xlsx")
mr_data
#> $surveys
#> # A tibble: 77 x 16
#>    basin   site_id capture_date survey_year period_id pit_tag_id     
#>    <chr>     <dbl> <date>             <dbl> <chr>     <chr>          
#>  1 Bedrock   12345 2008-07-24          2008 1.1.1     985121011993027
#>  2 Bedrock   12345 2008-07-24          2008 1.1.1     985121012022903
#>  3 Bedrock   12345 2008-07-24          2008 1.1.1     985121012023064
#>  4 Bedrock   12345 2008-07-24          2008 1.1.1     985121012024075
#>  5 Bedrock   12345 2008-07-24          2008 1.1.1     985121012025789
#>  6 Bedrock   12345 2008-07-24          2008 1.1.1     985121012025876
#>  7 Bedrock   12345 2008-07-24          2008 1.1.1     985121012027934
#>  8 Bedrock   12345 2008-07-24          2008 1.1.1     985121012029339
#>  9 Bedrock   12345 2008-07-24          2008 1.1.1     985121012029379
#> 10 Bedrock   12345 2008-07-24          2008 1.1.1     985121012029973
#> # ... with 67 more rows, and 10 more variables: pit_tag_source <chr>,
#> #   pit_tag_insert <lgl>, air_temp <dbl>, sun_conditions <chr>,
#> #   wind_conditions <chr>, survey_duration <dbl>, snow_wc <dbl>,
#> #   frog_sex <chr>, frog_weight <dbl>, frog_svl <dbl>
#> 
#> $translocations
#> # A tibble: 36 x 3
#>    site_id date       pit_tag_id     
#>      <dbl> <date>     <chr>          
#>  1   12345 2008-07-15 985121011993027
#>  2   12345 2008-07-15 985121012022903
#>  3   12345 2008-07-15 985121012023064
#>  4   12345 2008-07-15 985121012024075
#>  5   12345 2008-07-15 985121012024446
#>  6   12345 2008-07-15 985121012025789
#>  7   12345 2008-07-15 985121012025876
#>  8   12345 2008-07-15 985121012027934
#>  9   12345 2008-07-15 985121012028875
#> 10   12345 2008-07-15 985121012029294
#> # ... with 26 more rows
…
