Load a mark-recapture data set — clean_data • mrmr
…
#>               0               0               1               1               1 
#>  n_sec_periods6  n_sec_periods7  n_sec_periods8  n_sec_periods9 n_sec_periods10 
#>               1               1               1               1               1 
#> n_sec_periods11 n_sec_periods12 n_sec_periods13 n_sec_periods14 n_sec_periods15 
#>               1               1               1               0               1 
#> n_sec_periods16 n_sec_periods17 
#>               1               1 
#> 
#> $stan_d$prim_idx
#>  [1]  3  3  3  4  4  4  5  5  5  6  6  6  7  7  7  8  8  8  9  9  9  9  9 10 10
#> [26] 10 10 10 10 10 11 11 11 11 12 12 12 13 13 13 15 15 15 16 16 16 17 17 17
#> 
#> 
#> $captures
#> # A tibble: 466 x 19
#>    swab_id pit_tag_id site_id survey_date surveyor1 pit_tag_status frog_sex
#>    <chr>        <dbl>   <dbl> <date>      <chr>     <chr>          <chr>   
#>  1 NA         9.00e14   70449 2014-08-07  Killion   NA             M       
#>  2 NA         9.00e14   70449 2015-08-16  Killion   NA             F       
#>  3 NA         9.00e14   70449 2014-07-11  Demaranv… NA             M       
#>  4 NA         9.00e14   70449 2015-08-15  Lindauer  NA             M       
#>  5 NA         9.00e14   70449 2015-08-16  Killion   NA             F       
#>  6 NA         9.00e14   70449 2018-06-16  Beechan   NA             F       
#>  7 NA         9.00e14   70449 2014-08-08  Killion   NA             M       
#>  8 NA         9.00e14   70449 2018-08-03  Hegeman   NA             M       
#>  9 NA         9.00e14   70449 2015-07-19  Lindauer  NA             F       
#> 10 NA         9.00e14   70449 2014-07-12  Demaranv… NA             F       
#> # … with 456 more rows, and 12 more variables: frog_state <chr>,
#> #   frog_weight <dbl>, frog_svl <dbl>, swabber_name <chr>, treatment <chr>,
#> #   collection_date <date>, collection_location <dbl>, release_location <dbl>,
#> #   release_date <date>, standard_type <chr>, load <dbl>, category <chr>
#> 
#> $translocations
#> # A tibble: 80 x 24
#>    swab_id pit_tag_id treatment release_date swabbing_date pit_tag_status
#>    <chr>   <chr>      <chr>     <date>       <date>        <chr>         
#>  1 RKS167… 900043000… exposed   2014-06-28   2014-06-23    Y             
#>  2 RKS167… 900043000… exposed   2014-06-28   2014-06-23    Y             
#>  3 RKS167… 900043000… exposed   2014-06-28   2014-06-23    Y             
#>  4 RKS167… 900043000… exposed   2014-06-28   2014-06-23    Y             
#>  5 RKS167… 900043000… exposed   2014-06-28   2014-06-23    Y             
#>  6 RKS167… 900043000… exposed   2014-06-28   2014-06-23    Y             
#>  7 RKS167… 900043000… exposed   2014-06-28   2014-06-23    Y             
#>  8 RKS167… 900043000… exposed   2014-06-28   2014-06-23    Y             
#>  9 RKS167… 900043000… exposed   2014-06-28   2014-06-23    Y             
#> 10 RKS167… 900043000… exposed   2014-06-28   2014-06-23    Y             
#> # … with 70 more rows, and 18 more variables: frog_sex <chr>, frog_state <chr>,
#> #   frog_location <chr>, frog_weight <dbl>, frog_svl <dbl>, swabber_name <chr>,
#> #   frog_comments <chr>, quant_cycle <dbl>, start_quant <dbl>,
#> #   standard_type <chr>, load <dbl>, survey_date <date>, primary_period <dbl>,
#> #   secondary_period <dbl>, duration <dbl>, person_hours <dbl>, year <dbl>,
#> #   is_overwinter <lgl>
#> 
#> $surveys
#> # A tibble: 52 x 7
#>    primary_period secondary_period survey_date duration person_hours  year
#>             <dbl>            <dbl> <date>         <dbl>        <dbl> <dbl>
#>  1              1                0 2014-06-14     NA           NA     2014
#>  2              2                0 2014-06-28     NA           NA     2014
#>  3              3                1 2014-07-10      7.61         7.61  2014
#>  4              3                2 2014-07-11      7            7     2014
#>  5              3                3 2014-07-12      5.35         5.35  2014
#>  6              4                1 2014-08-06      7.33         7.33  2014
#>  7              4                2 2014-08-07      7.58         7.58  2014
#>  8              4                3 2014-08-08      8.16         8.16  2014
#>  9              5                1 2014-09-03      7.58         7.58  2014
#> 10              5                2 2014-09-04      7.85         7.85  2014
#> # … with 42 more rows, and 1 more variable: is_overwinter <lgl>
…
