An introduction to mrmr • mrmr
…
survival_table(mod, by_individual = TRUE)
#> Joining, by = "pit_tag_id"
#> Joining, by = "primary_period"
#> # A tibble: 310 × 6
#>    years_since_introduction release_date pit_tag_id      lo_survival median_survival
#>                       <dbl> <date>       <chr>                 <dbl>           <dbl>
#>  1                        0 2014-06-28   900043000104502       1               1    
#>  2                        0 2014-06-28   900043000104505       1               1    
#>  3                        0 2014-06-28   900043000104510       1               1    
#>  4                        0 2014-06-28   900043000104512       0.333           0.333
#>  5                        0 2014-06-28   900043000104513       0               0    
#>  6                        0 2014-06-28   900043000104516       0.333           0.333
#>  7                        0 2014-06-28   900043000104520       0               0    
#>  8                        0 2014-06-28   900043000104521       0.333           0.333
#>  9                        0 2014-06-28   900043000104522       1               1    
#> 10                        0 2014-06-28   900043000104524       1               1    
#> # … with 300 more rows, and 1 more variable: hi_survival <dbl>
…
